…
    ## [1] 7

``` r
colnames(ny_noaa)
```

    ## [1] "id"   "date" "prcp" "snow" "snwd" "tmax" "tmin"

``` r
ny_noaa
```

    ## # A tibble: 2,595,176 × 7
    ##    id          date        prcp  snow  snwd tmax  tmin 
    ##    <chr>       <date>     <int> <int> <int> <chr> <chr>
    ##  1 US1NYAB0001 2007-11-01    NA    NA    NA <NA>  <NA> 
    ##  2 US1NYAB0001 2007-11-02    NA    NA    NA <NA>  <NA> 
    ##  3 US1NYAB0001 2007-11-03    NA    NA    NA <NA>  <NA> 
    ##  4 US1NYAB0001 2007-11-04    NA    NA    NA <NA>  <NA> 
    ##  5 US1NYAB0001 2007-11-05    NA    NA    NA <NA>  <NA> 
    ##  6 US1NYAB0001 2007-11-06    NA    NA    NA <NA>  <NA> 
    ##  7 US1NYAB0001 2007-11-07    NA    NA    NA <NA>  <NA> 
    ##  8 US1NYAB0001 2007-11-08    NA    NA    NA <NA>  <NA> 
    ##  9 US1NYAB0001 2007-11-09    NA    NA    NA <NA>  <NA> 
    ## 10 US1NYAB0001 2007-11-10    NA    NA    NA <NA>  <NA> 
    ## # ℹ 2,595,166 more rows
…
hw_df
```

    ## # A tibble: 1,222,433 × 10
    ##    id          date        prcp  snow  snwd  tmax  tmin  year month   day
    ##    <chr>       <date>     <int> <int> <int> <dbl> <dbl> <dbl> <dbl> <int>
    ##  1 USC00300023 1981-01-03     0     0     0 -12.2 -20.6  1981     1     3
    ##  2 USC00300023 1981-01-05     0     0     0  -5.6 -17.8  1981     1     5
    ##  3 USC00300023 1981-01-12     0     0     0 -12.2 -30.6  1981     1    12
    ##  4 USC00300023 1981-01-13     0     0     0  -6.7 -28.9  1981     1    13
    ##  5 USC00300023 1981-01-15     0     0     0  -5   -10.6  1981     1    15
    ##  6 USC00300023 1981-01-17     0     0     0  -1.1 -15    1981     1    17
    ##  7 USC00300023 1981-01-20     0     0     0   6.1  -6.7  1981     1    20
    ##  8 USC00300023 1981-01-21     0     0     0   1.7 -10.6  1981     1    21
    ##  9 USC00300023 1981-01-22     0     0     0   0.6  -5    1981     1    22
    ## 10 USC00300023 1981-01-23   117   127    76   2.2  -4.4  1981     1    23
    ## # ℹ 1,222,423 more rows
…
